…
normalized_prob %>% 
    filter(word1 == "brexit") %>%
    arrange(-p_together)
```

```
## # A tibble: 1,016 x 7
##    word1  word2                      n           p      p1         p2 p_together
##    <chr>  <chr>                  <dbl>       <dbl>   <dbl>      <dbl>      <dbl>
##  1 brexit brexit                 38517 0.000499    0.00279 0.00279          64.0
##  2 brexit softer                    50 0.000000648 0.00279 0.00000484       48.0
##  3 brexit dividend                 176 0.00000228  0.00279 0.0000201        40.7
##  4 brexit scotlandsplaceineurope    37 0.000000479 0.00279 0.00000446       38.5
##  5 brexit botched                  129 0.00000167  0.00279 0.0000208        28.7
##  6 brexit gridlock                  30 0.000000389 0.00279 0.00000521       26.7
##  7 brexit deadlock                 120 0.00000155  0.00279 0.0000242        23.0
##  8 brexit preparedness              22 0.000000285 0.00279 0.00000446       22.9
##  9 brexit soft                      89 0.00000115  0.00279 0.0000190        21.8
## 10 brexit weaken                    24 0.000000311 0.00279 0.00000521       21.4
## # … with 1,006 more rows
```
…
